Introduction to R
…
count: false
 
## Basic bar chart
.panel1-my_bar-auto[

```r
*globalData2019clean
```
]
 
.panel2-my_bar-auto[

```
# A tibble: 995 x 8
   SEX      AGE BETTER_GENDER LADDER_NOW COUNTRY_SATIS ECON_SIT BELIEVE_GOD     
   <fct>  <dbl> <fct>              <dbl> <fct>         <fct>    <fct>           
 1 Female    22 Men                    5 Dissatisfied  Very bad It is necessary…
 2 Male      21 Men                    7 Dissatisfied  Somewha… It is not neces…
 3 Male      24 Same/both eq…         10 Dissatisfied  Very bad It is necessary…
 4 Male      23 Men                    1 Dissatisfied  Very bad It is necessary…
 5 Male      41 Men                    2 Dissatisfied  Very bad It is not neces…
 6 Male      34 Women                  9 Dissatisfied  Somewha… It is necessary…
 7 Male      18 Men                   10 Dissatisfied  Somewha… It is necessary…
 8 Male      38 <NA>                   3 Dissatisfied  Very bad It is necessary…
 9 Male      21 Same/both eq…          6 Dissatisfied  Very bad It is necessary…
10 Female    25 Same/both eq…         10 Dissatisfied  Somewha… It is necessary…
# … with 985 more rows, and 1 more variable: GLOBAL_COMMUNITY <fct>
```
…
count: false
 
## Fancy bar chart
.panel1-my_bar_fancy-auto[

```r
*globalData2019clean
```
]
 
.panel2-my_bar_fancy-auto[

```
# A tibble: 995 x 8
   SEX      AGE BETTER_GENDER LADDER_NOW COUNTRY_SATIS ECON_SIT BELIEVE_GOD     
   <fct>  <dbl> <fct>              <dbl> <fct>         <fct>    <fct>           
 1 Female    22 Men                    5 Dissatisfied  Very bad It is necessary…
 2 Male      21 Men                    7 Dissatisfied  Somewha… It is not neces…
 3 Male      24 Same/both eq…         10 Dissatisfied  Very bad It is necessary…
 4 Male      23 Men                    1 Dissatisfied  Very bad It is necessary…
 5 Male      41 Men                    2 Dissatisfied  Very bad It is not neces…
 6 Male      34 Women                  9 Dissatisfied  Somewha… It is necessary…
 7 Male      18 Men                   10 Dissatisfied  Somewha… It is necessary…
 8 Male      38 <NA>                   3 Dissatisfied  Very bad It is necessary…
 9 Male      21 Same/both eq…          6 Dissatisfied  Very bad It is necessary…
10 Female    25 Same/both eq…         10 Dissatisfied  Somewha… It is necessary…
# … with 985 more rows, and 1 more variable: GLOBAL_COMMUNITY <fct>
```
…
count: false
 
## Fancy bar chart with colors
.panel1-my_bar_fancy_colors-auto[

```r
*globalData2019clean
```
]
 
.panel2-my_bar_fancy_colors-auto[

```
# A tibble: 995 x 8
   SEX      AGE BETTER_GENDER LADDER_NOW COUNTRY_SATIS ECON_SIT BELIEVE_GOD     
   <fct>  <dbl> <fct>              <dbl> <fct>         <fct>    <fct>           
 1 Female    22 Men                    5 Dissatisfied  Very bad It is necessary…
 2 Male      21 Men                    7 Dissatisfied  Somewha… It is not neces…
 3 Male      24 Same/both eq…         10 Dissatisfied  Very bad It is necessary…
 4 Male      23 Men                    1 Dissatisfied  Very bad It is necessary…
 5 Male      41 Men                    2 Dissatisfied  Very bad It is not neces…
 6 Male      34 Women                  9 Dissatisfied  Somewha… It is necessary…
 7 Male      18 Men                   10 Dissatisfied  Somewha… It is necessary…
 8 Male      38 <NA>                   3 Dissatisfied  Very bad It is necessary…
 9 Male      21 Same/both eq…          6 Dissatisfied  Very bad It is necessary…
10 Female    25 Same/both eq…         10 Dissatisfied  Somewha… It is necessary…
# … with 985 more rows, and 1 more variable: GLOBAL_COMMUNITY <fct>
```
…
count: false
 
## Fancy bar chart without legend
.panel1-my_bar_fancy_legend-auto[

```r
*globalData2019clean
```
]
 
.panel2-my_bar_fancy_legend-auto[

```
# A tibble: 995 x 8
   SEX      AGE BETTER_GENDER LADDER_NOW COUNTRY_SATIS ECON_SIT BELIEVE_GOD     
   <fct>  <dbl> <fct>              <dbl> <fct>         <fct>    <fct>           
 1 Female    22 Men                    5 Dissatisfied  Very bad It is necessary…
 2 Male      21 Men                    7 Dissatisfied  Somewha… It is not neces…
 3 Male      24 Same/both eq…         10 Dissatisfied  Very bad It is necessary…
 4 Male      23 Men                    1 Dissatisfied  Very bad It is necessary…
 5 Male      41 Men                    2 Dissatisfied  Very bad It is not neces…
 6 Male      34 Women                  9 Dissatisfied  Somewha… It is necessary…
 7 Male      18 Men                   10 Dissatisfied  Somewha… It is necessary…
 8 Male      38 <NA>                   3 Dissatisfied  Very bad It is necessary…
 9 Male      21 Same/both eq…          6 Dissatisfied  Very bad It is necessary…
10 Female    25 Same/both eq…         10 Dissatisfied  Somewha… It is necessary…
# … with 985 more rows, and 1 more variable: GLOBAL_COMMUNITY <fct>
```
…
count: false
 
## Stacked bar plot
.panel1-stacked_bar-auto[

```r
*globalData2019clean
```
]
 
.panel2-stacked_bar-auto[

```
# A tibble: 995 x 8
   SEX      AGE BETTER_GENDER LADDER_NOW COUNTRY_SATIS ECON_SIT BELIEVE_GOD     
   <fct>  <dbl> <fct>              <dbl> <fct>         <fct>    <fct>           
 1 Female    22 Men                    5 Dissatisfied  Very bad It is necessary…
 2 Male      21 Men                    7 Dissatisfied  Somewha… It is not neces…
 3 Male      24 Same/both eq…         10 Dissatisfied  Very bad It is necessary…
 4 Male      23 Men                    1 Dissatisfied  Very bad It is necessary…
 5 Male      41 Men                    2 Dissatisfied  Very bad It is not neces…
 6 Male      34 Women                  9 Dissatisfied  Somewha… It is necessary…
 7 Male      18 Men                   10 Dissatisfied  Somewha… It is necessary…
 8 Male      38 <NA>                   3 Dissatisfied  Very bad It is necessary…
 9 Male      21 Same/both eq…          6 Dissatisfied  Very bad It is necessary…
10 Female    25 Same/both eq…         10 Dissatisfied  Somewha… It is necessary…
# … with 985 more rows, and 1 more variable: GLOBAL_COMMUNITY <fct>
```
…
## Stacked bar plot
.panel1-stacked_bar-auto[

```r
globalData2019clean %>%
* drop_na(BETTER_GENDER)
```
]
 
.panel2-stacked_bar-auto[

```
# A tibble: 962 x 8
   SEX      AGE BETTER_GENDER LADDER_NOW COUNTRY_SATIS ECON_SIT BELIEVE_GOD     
   <fct>  <dbl> <fct>              <dbl> <fct>         <fct>    <fct>           
 1 Female    22 Men                    5 Dissatisfied  Very bad It is necessary…
 2 Male      21 Men                    7 Dissatisfied  Somewha… It is not neces…
 3 Male      24 Same/both eq…         10 Dissatisfied  Very bad It is necessary…
 4 Male      23 Men                    1 Dissatisfied  Very bad It is necessary…
 5 Male      41 Men                    2 Dissatisfied  Very bad It is not neces…
 6 Male      34 Women                  9 Dissatisfied  Somewha… It is necessary…
 7 Male      18 Men                   10 Dissatisfied  Somewha… It is necessary…
 8 Male      21 Same/both eq…          6 Dissatisfied  Very bad It is necessary…
 9 Female    25 Same/both eq…         10 Dissatisfied  Somewha… It is necessary…
10 Male      27 Men                   98 Satisfied     Very go… It is not neces…
# … with 952 more rows, and 1 more variable: GLOBAL_COMMUNITY <fct>
```
…
count: false
 
## Grouped bar plot
.panel1-grouped_bar-auto[

```r
*globalData2019clean
```
]
 
.panel2-grouped_bar-auto[

```
# A tibble: 995 x 8
   SEX      AGE BETTER_GENDER LADDER_NOW COUNTRY_SATIS ECON_SIT BELIEVE_GOD     
   <fct>  <dbl> <fct>              <dbl> <fct>         <fct>    <fct>           
 1 Female    22 Men                    5 Dissatisfied  Very bad It is necessary…
 2 Male      21 Men                    7 Dissatisfied  Somewha… It is not neces…
 3 Male      24 Same/both eq…         10 Dissatisfied  Very bad It is necessary…
 4 Male      23 Men                    1 Dissatisfied  Very bad It is necessary…
 5 Male      41 Men                    2 Dissatisfied  Very bad It is not neces…
 6 Male      34 Women                  9 Dissatisfied  Somewha… It is necessary…
 7 Male      18 Men                   10 Dissatisfied  Somewha… It is necessary…
 8 Male      38 <NA>                   3 Dissatisfied  Very bad It is necessary…
 9 Male      21 Same/both eq…          6 Dissatisfied  Very bad It is necessary…
10 Female    25 Same/both eq…         10 Dissatisfied  Somewha… It is necessary…
# … with 985 more rows, and 1 more variable: GLOBAL_COMMUNITY <fct>
```
…
## Grouped bar plot
.panel1-grouped_bar-auto[

```r
globalData2019clean %>%
* drop_na(BETTER_GENDER)
```
]
 
.panel2-grouped_bar-auto[

```
# A tibble: 962 x 8
   SEX      AGE BETTER_GENDER LADDER_NOW COUNTRY_SATIS ECON_SIT BELIEVE_GOD     
   <fct>  <dbl> <fct>              <dbl> <fct>         <fct>    <fct>           
 1 Female    22 Men                    5 Dissatisfied  Very bad It is necessary…
 2 Male      21 Men                    7 Dissatisfied  Somewha… It is not neces…
 3 Male      24 Same/both eq…         10 Dissatisfied  Very bad It is necessary…
 4 Male      23 Men                    1 Dissatisfied  Very bad It is necessary…
 5 Male      41 Men                    2 Dissatisfied  Very bad It is not neces…
 6 Male      34 Women                  9 Dissatisfied  Somewha… It is necessary…
 7 Male      18 Men                   10 Dissatisfied  Somewha… It is necessary…
 8 Male      21 Same/both eq…          6 Dissatisfied  Very bad It is necessary…
 9 Female    25 Same/both eq…         10 Dissatisfied  Somewha… It is necessary…
10 Male      27 Men                   98 Satisfied     Very go… It is not neces…
# … with 952 more rows, and 1 more variable: GLOBAL_COMMUNITY <fct>
```
…
count: false
 
## Answer to You Try It!
.panel1-answerYti-auto[

```r
# Figure 2 code goes here
*globalData2019clean
```
]
 
.panel2-answerYti-auto[

```
# A tibble: 995 x 8
   SEX      AGE BETTER_GENDER LADDER_NOW COUNTRY_SATIS ECON_SIT BELIEVE_GOD     
   <fct>  <dbl> <fct>              <dbl> <fct>         <fct>    <fct>           
 1 Female    22 Men                    5 Dissatisfied  Very bad It is necessary…
 2 Male      21 Men                    7 Dissatisfied  Somewha… It is not neces…
 3 Male      24 Same/both eq…         10 Dissatisfied  Very bad It is necessary…
 4 Male      23 Men                    1 Dissatisfied  Very bad It is necessary…
 5 Male      41 Men                    2 Dissatisfied  Very bad It is not neces…
 6 Male      34 Women                  9 Dissatisfied  Somewha… It is necessary…
 7 Male      18 Men                   10 Dissatisfied  Somewha… It is necessary…
 8 Male      38 <NA>                   3 Dissatisfied  Very bad It is necessary…
 9 Male      21 Same/both eq…          6 Dissatisfied  Very bad It is necessary…
10 Female    25 Same/both eq…         10 Dissatisfied  Somewha… It is necessary…
# … with 985 more rows, and 1 more variable: GLOBAL_COMMUNITY <fct>
```
…
## Answer to You Try It!
.panel1-answerYti-auto[

```r
# Figure 2 code goes here
globalData2019clean %>%
* drop_na(BELIEVE_GOD)
```
]
 
.panel2-answerYti-auto[

```
# A tibble: 990 x 8
   SEX      AGE BETTER_GENDER LADDER_NOW COUNTRY_SATIS ECON_SIT BELIEVE_GOD     
   <fct>  <dbl> <fct>              <dbl> <fct>         <fct>    <fct>           
 1 Female    22 Men                    5 Dissatisfied  Very bad It is necessary…
 2 Male      21 Men                    7 Dissatisfied  Somewha… It is not neces…
 3 Male      24 Same/both eq…         10 Dissatisfied  Very bad It is necessary…
 4 Male      23 Men                    1 Dissatisfied  Very bad It is necessary…
 5 Male      41 Men                    2 Dissatisfied  Very bad It is not neces…
 6 Male      34 Women                  9 Dissatisfied  Somewha… It is necessary…
 7 Male      18 Men                   10 Dissatisfied  Somewha… It is necessary…
 8 Male      38 <NA>                   3 Dissatisfied  Very bad It is necessary…
 9 Male      21 Same/both eq…          6 Dissatisfied  Very bad It is necessary…
10 Female    25 Same/both eq…         10 Dissatisfied  Somewha… It is necessary…
# … with 980 more rows, and 1 more variable: GLOBAL_COMMUNITY <fct>
```
…
count: false
 
## Shorten long labels
.panel1-longlabs-auto[

```r
# Figure 2 code goes here
*globalData2019clean
```
]
 
.panel2-longlabs-auto[

```
# A tibble: 995 x 8
   SEX      AGE BETTER_GENDER LADDER_NOW COUNTRY_SATIS ECON_SIT BELIEVE_GOD     
   <fct>  <dbl> <fct>              <dbl> <fct>         <fct>    <fct>           
 1 Female    22 Men                    5 Dissatisfied  Very bad It is necessary…
 2 Male      21 Men                    7 Dissatisfied  Somewha… It is not neces…
 3 Male      24 Same/both eq…         10 Dissatisfied  Very bad It is necessary…
 4 Male      23 Men                    1 Dissatisfied  Very bad It is necessary…
 5 Male      41 Men                    2 Dissatisfied  Very bad It is not neces…
 6 Male      34 Women                  9 Dissatisfied  Somewha… It is necessary…
 7 Male      18 Men                   10 Dissatisfied  Somewha… It is necessary…
 8 Male      38 <NA>                   3 Dissatisfied  Very bad It is necessary…
 9 Male      21 Same/both eq…          6 Dissatisfied  Very bad It is necessary…
10 Female    25 Same/both eq…         10 Dissatisfied  Somewha… It is necessary…
# … with 985 more rows, and 1 more variable: GLOBAL_COMMUNITY <fct>
```
…
## Shorten long labels
.panel1-longlabs-auto[

```r
# Figure 2 code goes here
globalData2019clean %>%
* drop_na(BELIEVE_GOD)
```
]
 
.panel2-longlabs-auto[

```
# A tibble: 990 x 8
   SEX      AGE BETTER_GENDER LADDER_NOW COUNTRY_SATIS ECON_SIT BELIEVE_GOD     
   <fct>  <dbl> <fct>              <dbl> <fct>         <fct>    <fct>           
 1 Female    22 Men                    5 Dissatisfied  Very bad It is necessary…
 2 Male      21 Men                    7 Dissatisfied  Somewha… It is not neces…
 3 Male      24 Same/both eq…         10 Dissatisfied  Very bad It is necessary…
 4 Male      23 Men                    1 Dissatisfied  Very bad It is necessary…
 5 Male      41 Men                    2 Dissatisfied  Very bad It is not neces…
 6 Male      34 Women                  9 Dissatisfied  Somewha… It is necessary…
 7 Male      18 Men                   10 Dissatisfied  Somewha… It is necessary…
 8 Male      38 <NA>                   3 Dissatisfied  Very bad It is necessary…
 9 Male      21 Same/both eq…          6 Dissatisfied  Very bad It is necessary…
10 Female    25 Same/both eq…         10 Dissatisfied  Somewha… It is necessary…
# … with 980 more rows, and 1 more variable: GLOBAL_COMMUNITY <fct>
```
…
count: false
 
## Group percentages
.panel1-percents-auto[

```r
*globalData2019clean
```
]
 
.panel2-percents-auto[

```
# A tibble: 995 x 8
   SEX      AGE BETTER_GENDER LADDER_NOW COUNTRY_SATIS ECON_SIT BELIEVE_GOD     
   <fct>  <dbl> <fct>              <dbl> <fct>         <fct>    <fct>           
 1 Female    22 Men                    5 Dissatisfied  Very bad It is necessary…
 2 Male      21 Men                    7 Dissatisfied  Somewha… It is not neces…
 3 Male      24 Same/both eq…         10 Dissatisfied  Very bad It is necessary…
 4 Male      23 Men                    1 Dissatisfied  Very bad It is necessary…
 5 Male      41 Men                    2 Dissatisfied  Very bad It is not neces…
 6 Male      34 Women                  9 Dissatisfied  Somewha… It is necessary…
 7 Male      18 Men                   10 Dissatisfied  Somewha… It is necessary…
 8 Male      38 <NA>                   3 Dissatisfied  Very bad It is necessary…
 9 Male      21 Same/both eq…          6 Dissatisfied  Very bad It is necessary…
10 Female    25 Same/both eq…         10 Dissatisfied  Somewha… It is necessary…
# … with 985 more rows, and 1 more variable: GLOBAL_COMMUNITY <fct>
```
…
## Group percentages
.panel1-percents-auto[

```r
globalData2019clean %>%
* group_by(BELIEVE_GOD, SEX)
```
]
 
.panel2-percents-auto[

```
# A tibble: 995 x 8
# Groups:   BELIEVE_GOD, SEX [6]
   SEX      AGE BETTER_GENDER LADDER_NOW COUNTRY_SATIS ECON_SIT BELIEVE_GOD     
   <fct>  <dbl> <fct>              <dbl> <fct>         <fct>    <fct>           
 1 Female    22 Men                    5 Dissatisfied  Very bad It is necessary…
 2 Male      21 Men                    7 Dissatisfied  Somewha… It is not neces…
 3 Male      24 Same/both eq…         10 Dissatisfied  Very bad It is necessary…
 4 Male      23 Men                    1 Dissatisfied  Very bad It is necessary…
 5 Male      41 Men                    2 Dissatisfied  Very bad It is not neces…
 6 Male      34 Women                  9 Dissatisfied  Somewha… It is necessary…
 7 Male      18 Men                   10 Dissatisfied  Somewha… It is necessary…
 8 Male      38 <NA>                   3 Dissatisfied  Very bad It is necessary…
 9 Male      21 Same/both eq…          6 Dissatisfied  Very bad It is necessary…
10 Female    25 Same/both eq…         10 Dissatisfied  Somewha… It is necessary…
# … with 985 more rows, and 1 more variable: GLOBAL_COMMUNITY <fct>
```
…
count: false
 
## Grouped bar plot
.panel1-grouped_bar_perc-auto[

```r
*globalData2019clean
```
]
 
.panel2-grouped_bar_perc-auto[

```
# A tibble: 995 x 8
   SEX      AGE BETTER_GENDER LADDER_NOW COUNTRY_SATIS ECON_SIT BELIEVE_GOD     
   <fct>  <dbl> <fct>              <dbl> <fct>         <fct>    <fct>           
 1 Female    22 Men                    5 Dissatisfied  Very bad It is necessary…
 2 Male      21 Men                    7 Dissatisfied  Somewha… It is not neces…
 3 Male      24 Same/both eq…         10 Dissatisfied  Very bad It is necessary…
 4 Male      23 Men                    1 Dissatisfied  Very bad It is necessary…
 5 Male      41 Men                    2 Dissatisfied  Very bad It is not neces…
 6 Male      34 Women                  9 Dissatisfied  Somewha… It is necessary…
 7 Male      18 Men                   10 Dissatisfied  Somewha… It is necessary…
 8 Male      38 <NA>                   3 Dissatisfied  Very bad It is necessary…
 9 Male      21 Same/both eq…          6 Dissatisfied  Very bad It is necessary…
10 Female    25 Same/both eq…         10 Dissatisfied  Somewha… It is necessary…
# … with 985 more rows, and 1 more variable: GLOBAL_COMMUNITY <fct>
```
…
## Grouped bar plot
.panel1-grouped_bar_perc-auto[

```r
globalData2019clean %>%
* group_by(BELIEVE_GOD, SEX)
```
]
 
.panel2-grouped_bar_perc-auto[

```
# A tibble: 995 x 8
# Groups:   BELIEVE_GOD, SEX [6]
   SEX      AGE BETTER_GENDER LADDER_NOW COUNTRY_SATIS ECON_SIT BELIEVE_GOD     
   <fct>  <dbl> <fct>              <dbl> <fct>         <fct>    <fct>           
 1 Female    22 Men                    5 Dissatisfied  Very bad It is necessary…
 2 Male      21 Men                    7 Dissatisfied  Somewha… It is not neces…
 3 Male      24 Same/both eq…         10 Dissatisfied  Very bad It is necessary…
 4 Male      23 Men                    1 Dissatisfied  Very bad It is necessary…
 5 Male      41 Men                    2 Dissatisfied  Very bad It is not neces…
 6 Male      34 Women                  9 Dissatisfied  Somewha… It is necessary…
 7 Male      18 Men                   10 Dissatisfied  Somewha… It is necessary…
 8 Male      38 <NA>                   3 Dissatisfied  Very bad It is necessary…
 9 Male      21 Same/both eq…          6 Dissatisfied  Very bad It is necessary…
10 Female    25 Same/both eq…         10 Dissatisfied  Somewha… It is necessary…
# … with 985 more rows, and 1 more variable: GLOBAL_COMMUNITY <fct>
```
…
